{
  "items": [
    {
      "id": 1,
      "name": "Abiotic Factor",
      "price": 19.99,
      "description": "A sci-fi game exploring the survival in an alien environment.",
      "image": "AbioticFactor.jpg",
      "releaseYear": 2023,
      "stock": 100,
      "activationRegion": {
        "id": 1,
        "region": "Europe"
      },
      "activationPlatform": {
        "id": 1,
        "platform": "Steam"
      },
      "publisher": {
        "id": 1,
        "publisher": "Activision"
      },
      "genre": {
        "id": 5,
        "genre": "Adventure"
      },
      "seller": "Test"
    },
    {
      "id": 2,
      "name": "Age of Mythology",
      "price": 29.99,
      "description": "A strategy game rooted in mythological tales.",
      "image": "AgeofMythology.jpg",
      "releaseYear": 2002,
      "stock": 200,
      "activationRegion": {
        "id": 2,
        "region": "JAV"
      },
      "activationPlatform": {
        "id": 3,
        "platform": "Epic Games"
      },
      "publisher": {
        "id": 2,
        "publisher": "Ubisoft"
      },
      "genre": {
        "id": 5,
        "genre": "Adventure"
      },
      "seller": "Test"
    },
    {
      "id": 3,
      "name": "Batman Arkham City",
      "price": 19.99,
      "description": "An action-adventure game set in the Batman universe.",
      "image": "BatmanArkhamCity.jpg",
      "releaseYear": 2011,
      "stock": 150,
      "activationRegion": {
        "id": 3,
        "region": "Turkey"
      },
      "activationPlatform": {
        "id": 1,
        "platform": "Steam"
      },
      "publisher": {
        "id": 1,
        "publisher": "Activision"
      },
      "genre": {
        "id": 5,
        "genre": "Adventure"
      },
      "seller": "Test"
    },
    {
      "id": 4,
      "name": "Car Mechanic Simulator VR",
      "price": 24.99,
      "description": "A simulation game where you fix and restore cars in VR.",
      "image": "CarMechanicSimulatorVR.png",
      "releaseYear": 2021,
      "stock": 120,
      "activationRegion": {
        "id": 4,
        "region": "Argentina"
      },
      "activationPlatform": {
        "id": 2,
        "platform": "Ubisoft"
      },
      "publisher": {
        "id": 3,
        "publisher": "Nintendo"
      },
      "genre": {
        "id": 3,
        "genre": "Puzzle"
      },
      "seller": "Test"
    },
    {
      "id": 5,
      "name": "Core Keeper",
      "price": 14.99,
      "description": "An indie exploration and crafting game.",
      "image": "CoreKeeper.png",
      "releaseYear": 2022,
      "stock": 180,
      "activationRegion": {
        "id": 1,
        "region": "Europe"
      },
      "activationPlatform": {
        "id": 3,
        "platform": "Epic Games"
      },
      "publisher": {
        "id": 2,
        "publisher": "Ubisoft"
      },
      "genre": {
        "id": 5,
        "genre": "Adventure"
      },
      "seller": "Test"
    }
  ],
  "currentPage": 0,
  "totalPages": 6,
  "totalItems": 30
}