{
  "items": [
    {
      "id": 1,
      "name": "Abiotic Factor",
      "price": 19.99,
      "description": "A sci-fi game exploring the survival in an alien environment.",
      "image": "AbioticFactor.jpg",
      "releaseYear": 2023,
      "stock": 100,
      "activationRegion": {
        "id": 1,
        "region": "Europe"
      },
      "activationPlatform": {
        "id": 1,
        "platform": "Steam"
      },
      "publisher": {
        "id": 1,
        "publisher": "Activision"
      },
      "genre": {
        "id": 5,
        "genre": "Adventure"
      },
      "seller": "Test"
    },
    {
      "id": 2,
      "name": "Age of Mythology",
      "price": 29.99,
      "description": "A strategy game rooted in mythological tales.",
      "image": "AgeofMythology.jpg",
      "releaseYear": 2002,
      "stock": 200,
      "activationRegion": {
        "id": 2,
        "region": "JAV"
      },
      "activationPlatform": {
        "id": 3,
        "platform": "Epic Games"
      },
      "publisher": {
        "id": 2,
        "publisher": "Ubisoft"
      },
      "genre": {
        "id": 5,
        "genre": "Adventure"
      },
      "seller": "Test"
    },
    {
      "id": 3,
      "name": "Batman Arkham City",
      "price": 19.99,
      "description": "An action-adventure game set in the Batman universe.",
      "image": "BatmanArkhamCity.jpg",
      "releaseYear": 2011,
      "stock": 150,
      "activationRegion": {
        "id": 3,
        "region": "Turkey"
      },
      "activationPlatform": {
        "id": 1,
        "platform": "Steam"
      },
      "publisher": {
        "id": 1,
        "publisher": "Activision"
      },
      "genre": {
        "id": 5,
        "genre": "Adventure"
      },
      "seller": "Test"
    },
    {
      "id": 4,
      "name": "Car Mechanic Simulator VR",
      "price": 24.99,
      "description": "A simulation game where you fix and restore cars in VR.",
      "image": "CarMechanicSimulatorVR.png",
      "releaseYear": 2021,
      "stock": 120,
      "activationRegion": {
        "id": 4,
        "region": "Argentina"
      },
      "activationPlatform": {
        "id": 2,
        "platform": "Ubisoft"
      },
      "publisher": {
        "id": 3,
        "publisher": "Nintendo"
      },
      "genre": {
        "id": 3,
        "genre": "Puzzle"
      },
      "seller": "Test"
    },
    {
      "id": 5,
      "name": "Core Keeper",
      "price": 14.99,
      "description": "An indie exploration and crafting game.",
      "image": "CoreKeeper.png",
      "releaseYear": 2022,
      "stock": 180,
      "activationRegion": {
        "id": 1,
        "region": "Europe"
      },
      "activationPlatform": {
        "id": 3,
        "platform": "Epic Games"
      },
      "publisher": {
        "id": 2,
        "publisher": "Ubisoft"
      },
      "genre": {
        "id": 5,
        "genre": "Adventure"
      },
      "seller": "Test"
    },
    {
      "id": 6,
      "name": "Cyberpunk 2077",
      "price": 59.99,
      "description": "An open-world RPG set in a dystopian future.",
      "image": "Cyberpunk2077.jpg",
      "releaseYear": 2020,
      "stock": 75,
      "activationRegion": {
        "id": 2,
        "region": "JAV"
      },
      "activationPlatform": {
        "id": 1,
        "platform": "Steam"
      },
      "publisher": {
        "id": 2,
        "publisher": "Ubisoft"
      },
      "genre": {
        "id": 1,
        "genre": "RPG"
      },
      "seller": "Test"
    },
    {
      "id": 7,
      "name": "Disney Bolt",
      "price": 14.99,
      "description": "An action game based on the Disney film Bolt.",
      "image": "DisneyBolt.jpg",
      "releaseYear": 2008,
      "stock": 160,
      "activationRegion": {
        "id": 3,
        "region": "Turkey"
      },
      "activationPlatform": {
        "id": 2,
        "platform": "Ubisoft"
      },
      "publisher": {
        "id": 1,
        "publisher": "Activision"
      },
      "genre": {
        "id": 5,
        "genre": "Adventure"
      },
      "seller": "Test"
    },
    {
      "id": 8,
      "name": "DOOM",
      "price": 29.99,
      "description": "A classic first-person shooter game.",
      "image": "DOOM.png",
      "releaseYear": 1993,
      "stock": 140,
      "activationRegion": {
        "id": 1,
        "region": "Europe"
      },
      "activationPlatform": {
        "id": 3,
        "platform": "Epic Games"
      },
      "publisher": {
        "id": 3,
        "publisher": "Nintendo"
      },
      "genre": {
        "id": 2,
        "genre": "Shooter"
      },
      "seller": "Test"
    },
    {
      "id": 9,
      "name": "Dying Light 2 Stay Human",
      "price": 49.99,
      "description": "A survival horror game set in a post-apocalyptic world.",
      "image": "DyingLight2StayHuman.jpg",
      "releaseYear": 2022,
      "stock": 90,
      "activationRegion": {
        "id": 5,
        "region": "Egypt"
      },
      "activationPlatform": {
        "id": 1,
        "platform": "Steam"
      },
      "publisher": {
        "id": 2,
        "publisher": "Ubisoft"
      },
      "genre": {
        "id": 2,
        "genre": "Shooter"
      },
      "seller": "Test"
    },
    {
      "id": 10,
      "name": "Farmers Life",
      "price": 29.99,
      "description": "A farming simulation game with life management elements.",
      "image": "FarmersLife.jpg",
      "releaseYear": 2022,
      "stock": 100,
      "activationRegion": {
        "id": 4,
        "region": "Argentina"
      },
      "activationPlatform": {
        "id": 2,
        "platform": "Ubisoft"
      },
      "publisher": {
        "id": 1,
        "publisher": "Activision"
      },
      "genre": {
        "id": 3,
        "genre": "Puzzle"
      },
      "seller": "Test"
    }
  ],
  "currentPage": 0,
  "totalPages": 3,
  "totalItems": 30
}