{
  "items": [
    {
      "id": 6,
      "name": "Cyberpunk 2077",
      "price": 59.99,
      "description": "An open-world RPG set in a dystopian future.",
      "image": "Cyberpunk2077.jpg",
      "releaseYear": 2020,
      "stock": 75,
      "activationRegion": {
        "id": 2,
        "regionName": "JAV"
      },
      "activationPlatform": {
        "id": 1,
        "platformName": "Steam"
      },
      "publisher": {
        "id": 2,
        "publisherName": "Ubisoft"
      },
      "genre": {
        "id": 1,
        "name": "RPG"
      },
      "seller": "Test"
    },
    {
      "id": 19,
      "name": "NBA 2K25",
      "price": 59.99,
      "description": "The latest installment in the NBA 2K basketball simulation series.",
      "image": "NBA2K25.jpg",
      "releaseYear": 2024,
      "stock": 50,
      "activationRegion": {
        "id": 4,
        "regionName": "Argentina"
      },
      "activationPlatform": {
        "id": 3,
        "platformName": "Epic Games"
      },
      "publisher": {
        "id": 2,
        "publisherName": "Ubisoft"
      },
      "genre": {
        "id": 4,
        "name": "Sports"
      },
      "seller": "Test"
    },
    {
      "id": 13,
      "name": "God of War",
      "price": 49.99,
      "description": "An action-adventure game following the journey of Kratos.",
      "image": "GodofWar.jpg",
      "releaseYear": 2018,
      "stock": 70,
      "activationRegion": {
        "id": 4,
        "regionName": "Argentina"
      },
      "activationPlatform": {
        "id": 2,
        "platformName": "Ubisoft"
      },
      "publisher": {
        "id": 1,
        "publisherName": "Activision"
      },
      "genre": {
        "id": 5,
        "name": "Adventure"
      },
      "seller": "Test"
    },
    {
      "id": 9,
      "name": "Dying Light 2 Stay Human",
      "price": 49.99,
      "description": "A survival horror game set in a post-apocalyptic world.",
      "image": "DyingLight2StayHuman.jpg",
      "releaseYear": 2022,
      "stock": 90,
      "activationRegion": {
        "id": 5,
        "regionName": "Egypt"
      },
      "activationPlatform": {
        "id": 1,
        "platformName": "Steam"
      },
      "publisher": {
        "id": 2,
        "publisherName": "Ubisoft"
      },
      "genre": {
        "id": 2,
        "name": "Shooter"
      },
      "seller": "Test"
    },
    {
      "id": 27,
      "name": "Total War: Warhammer II",
      "price": 49.99,
      "description": "A strategy game combining turn-based management with real-time battles.",
      "image": "TotalWarWarhammerII.jpg",
      "releaseYear": 2017,
      "stock": 60,
      "activationRegion": {
        "id": 1,
        "regionName": "Europe"
      },
      "activationPlatform": {
        "id": 3,
        "platformName": "Epic Games"
      },
      "publisher": {
        "id": 1,
        "publisherName": "Activision"
      },
      "genre": {
        "id": 5,
        "name": "Adventure"
      },
      "seller": "Test"
    },
    {
      "id": 11,
      "name": "Farming Simulator 22",
      "price": 39.99,
      "description": "Manage your farm and cultivate crops in this simulation game.",
      "image": "FarmingSimulator22.png",
      "releaseYear": 2021,
      "stock": 110,
      "activationRegion": {
        "id": 2,
        "regionName": "JAV"
      },
      "activationPlatform": {
        "id": 3,
        "platformName": "Epic Games"
      },
      "publisher": {
        "id": 2,
        "publisherName": "Ubisoft"
      },
      "genre": {
        "id": 3,
        "name": "Puzzle"
      },
      "seller": "Test"
    },
    {
      "id": 26,
      "name": "The Sims 4",
      "price": 39.99,
      "description": "A life simulation game where you create and control people.",
      "image": "TheSims4.jpg",
      "releaseYear": 2014,
      "stock": 75,
      "activationRegion": {
        "id": 2,
        "regionName": "JAV"
      },
      "activationPlatform": {
        "id": 3,
        "platformName": "Epic Games"
      },
      "publisher": {
        "id": 2,
        "publisherName": "Ubisoft"
      },
      "genre": {
        "id": 5,
        "name": "Adventure"
      },
      "seller": "Test"
    },
    {
      "id": 17,
      "name": "Metro Exodus",
      "price": 39.99,
      "description": "A story-driven FPS set in a post-apocalyptic Russia.",
      "image": "MetroExodus.jpeg",
      "releaseYear": 2019,
      "stock": 95,
      "activationRegion": {
        "id": 2,
        "regionName": "JAV"
      },
      "activationPlatform": {
        "id": 1,
        "platformName": "Steam"
      },
      "publisher": {
        "id": 3,
        "publisherName": "Nintendo"
      },
      "genre": {
        "id": 2,
        "name": "Shooter"
      },
      "seller": "Test"
    },
    {
      "id": 24,
      "name": "Skyrim Special Edition",
      "price": 39.99,
      "description": "A remastered version of the critically acclaimed RPG Skyrim.",
      "image": "SkyrimSpecialEdition.jpg",
      "releaseYear": 2016,
      "stock": 80,
      "activationRegion": {
        "id": 4,
        "regionName": "Argentina"
      },
      "activationPlatform": {
        "id": 1,
        "platformName": "Steam"
      },
      "publisher": {
        "id": 1,
        "publisherName": "Activision"
      },
      "genre": {
        "id": 1,
        "name": "RPG"
      },
      "seller": "Test"
    },
    {
      "id": 30,
      "name": "XCOM 2",
      "price": 39.99,
      "description": "A tactical RPG where you lead a resistance against an alien occupation.",
      "image": "XCOM2.jpg",
      "releaseYear": 2016,
      "stock": 120,
      "activationRegion": {
        "id": 3,
        "regionName": "Turkey"
      },
      "activationPlatform": {
        "id": 3,
        "platformName": "Epic Games"
      },
      "publisher": {
        "id": 1,
        "publisherName": "Activision"
      },
      "genre": {
        "id": 5,
        "name": "Adventure"
      },
      "seller": "Test"
    }
  ],
  "currentPage": 0,
  "totalPages": 3,
  "totalItems": 30
}