{
  "items": [
    {
      "id": 30,
      "name": "XCOM 2",
      "price": 39.99,
      "description": "A tactical RPG where you lead a resistance against an alien occupation.",
      "image": "XCOM2.jpg",
      "releaseYear": 2016,
      "stock": 120,
      "activationRegion": {
        "id": 3,
        "region": "Turkey"
      },
      "activationPlatform": {
        "id": 3,
        "platform": "Epic Games"
      },
      "publisher": {
        "id": 1,
        "publisher": "Activision"
      },
      "genre": {
        "id": 5,
        "genre": "Adventure"
      },
      "seller": "Test"
    },
    {
      "id": 29,
      "name": "Worms Rumble",
      "price": 19.99,
      "description": "A real-time battle royale game featuring the classic Worms characters.",
      "image": "WormsRumble.png",
      "releaseYear": 2020,
      "stock": 85,
      "activationRegion": {
        "id": 2,
        "region": "JAV"
      },
      "activationPlatform": {
        "id": 1,
        "platform": "Steam"
      },
      "publisher": {
        "id": 1,
        "publisher": "Activision"
      },
      "genre": {
        "id": 2,
        "genre": "Shooter"
      },
      "seller": "Test"
    },
    {
      "id": 28,
      "name": "Warframe",
      "price": 0.99,
      "description": "A cooperative free-to-play third-person online action game.",
      "image": "Warframe.jpg",
      "releaseYear": 2013,
      "stock": 100,
      "activationRegion": {
        "id": 4,
        "region": "Argentina"
      },
      "activationPlatform": {
        "id": 2,
        "platform": "Ubisoft"
      },
      "publisher": {
        "id": 2,
        "publisher": "Ubisoft"
      },
      "genre": {
        "id": 1,
        "genre": "RPG"
      },
      "seller": "Test"
    },
    {
      "id": 27,
      "name": "Total War: Warhammer II",
      "price": 49.99,
      "description": "A strategy game combining turn-based management with real-time battles.",
      "image": "TotalWarWarhammerII.jpg",
      "releaseYear": 2017,
      "stock": 60,
      "activationRegion": {
        "id": 1,
        "region": "Europe"
      },
      "activationPlatform": {
        "id": 3,
        "platform": "Epic Games"
      },
      "publisher": {
        "id": 1,
        "publisher": "Activision"
      },
      "genre": {
        "id": 5,
        "genre": "Adventure"
      },
      "seller": "Test"
    },
    {
      "id": 26,
      "name": "The Sims 4",
      "price": 39.99,
      "description": "A life simulation game where you create and control people.",
      "image": "TheSims4.jpg",
      "releaseYear": 2014,
      "stock": 75,
      "activationRegion": {
        "id": 2,
        "region": "JAV"
      },
      "activationPlatform": {
        "id": 3,
        "platform": "Epic Games"
      },
      "publisher": {
        "id": 2,
        "publisher": "Ubisoft"
      },
      "genre": {
        "id": 5,
        "genre": "Adventure"
      },
      "seller": "Test"
    },
    {
      "id": 25,
      "name": "Stardew Valley",
      "price": 14.99,
      "description": "A farming simulation game with a focus on community and exploration.",
      "image": "StardewValley.jpg",
      "releaseYear": 2016,
      "stock": 140,
      "activationRegion": {
        "id": 1,
        "region": "Europe"
      },
      "activationPlatform": {
        "id": 2,
        "platform": "Ubisoft"
      },
      "publisher": {
        "id": 3,
        "publisher": "Nintendo"
      },
      "genre": {
        "id": 3,
        "genre": "Puzzle"
      },
      "seller": "Test"
    },
    {
      "id": 24,
      "name": "Skyrim Special Edition",
      "price": 39.99,
      "description": "A remastered version of the critically acclaimed RPG Skyrim.",
      "image": "SkyrimSpecialEdition.jpg",
      "releaseYear": 2016,
      "stock": 80,
      "activationRegion": {
        "id": 4,
        "region": "Argentina"
      },
      "activationPlatform": {
        "id": 1,
        "platform": "Steam"
      },
      "publisher": {
        "id": 1,
        "publisher": "Activision"
      },
      "genre": {
        "id": 1,
        "genre": "RPG"
      },
      "seller": "Test"
    },
    {
      "id": 23,
      "name": "Resident Evil Revelations 2",
      "price": 29.99,
      "description": "A survival horror game that follows the events after Resident Evil 5.",
      "image": "ResidentEvilRevelations2.jpg",
      "releaseYear": 2015,
      "stock": 90,
      "activationRegion": {
        "id": 2,
        "region": "JAV"
      },
      "activationPlatform": {
        "id": 3,
        "platform": "Epic Games"
      },
      "publisher": {
        "id": 2,
        "publisher": "Ubisoft"
      },
      "genre": {
        "id": 2,
        "genre": "Shooter"
      },
      "seller": "Test"
    },
    {
      "id": 22,
      "name": "Real Farm",
      "price": 24.99,
      "description": "A farming simulation game that lets you experience farm life.",
      "image": "RealFarm.jpg",
      "releaseYear": 2017,
      "stock": 120,
      "activationRegion": {
        "id": 3,
        "region": "Turkey"
      },
      "activationPlatform": {
        "id": 1,
        "platform": "Steam"
      },
      "publisher": {
        "id": 3,
        "publisher": "Nintendo"
      },
      "genre": {
        "id": 3,
        "genre": "Puzzle"
      },
      "seller": "Test"
    },
    {
      "id": 21,
      "name": "Omerta",
      "price": 29.99,
      "description": "A strategy game focused on organized crime and gang wars.",
      "image": "Omerta.jpg",
      "releaseYear": 2013,
      "stock": 100,
      "activationRegion": {
        "id": 5,
        "region": "Egypt"
      },
      "activationPlatform": {
        "id": 2,
        "platform": "Ubisoft"
      },
      "publisher": {
        "id": 1,
        "publisher": "Activision"
      },
      "genre": {
        "id": 3,
        "genre": "Puzzle"
      },
      "seller": "Test"
    }
  ],
  "currentPage": 0,
  "totalPages": 3,
  "totalItems": 30
}