{
  "items": [
    {
      "id": 26,
      "name": "The Sims 4",
      "price": 39.99,
      "description": "A life simulation game where you create and control people.",
      "image": "TheSims4.jpg",
      "releaseYear": 2014,
      "stock": 75,
      "activationRegion": {
        "id": 2,
        "region": "JAV"
      },
      "activationPlatform": {
        "id": 3,
        "platform": "Epic Games"
      },
      "publisher": {
        "id": 2,
        "publisher": "Ubisoft"
      },
      "genre": {
        "id": 5,
        "genre": "Adventure"
      },
      "seller": "Test"
    },
    {
      "id": 13,
      "name": "God of War",
      "price": 49.99,
      "description": "An action-adventure game following the journey of Kratos.",
      "image": "GodofWar.jpg",
      "releaseYear": 2018,
      "stock": 70,
      "activationRegion": {
        "id": 4,
        "region": "Argentina"
      },
      "activationPlatform": {
        "id": 2,
        "platform": "Ubisoft"
      },
      "publisher": {
        "id": 1,
        "publisher": "Activision"
      },
      "genre": {
        "id": 5,
        "genre": "Adventure"
      },
      "seller": "Test"
    }
  ],
  "currentPage": 12,
  "totalPages": 15,
  "totalItems": 30
}