{
  "items": [
    {
      "id": 7,
      "name": "Disney Bolt",
      "price": 14.99,
      "description": "An action game based on the Disney film Bolt.",
      "image": "DisneyBolt.jpg",
      "releaseYear": 2008,
      "stock": 160,
      "activationRegion": {
        "id": 3,
        "region": "Turkey"
      },
      "activationPlatform": {
        "id": 2,
        "platform": "Ubisoft"
      },
      "publisher": {
        "id": 1,
        "publisher": "Activision"
      },
      "genre": {
        "id": 5,
        "genre": "Adventure"
      },
      "seller": "Test"
    },
    {
      "id": 8,
      "name": "DOOM",
      "price": 29.99,
      "description": "A classic first-person shooter game.",
      "image": "DOOM.png",
      "releaseYear": 1993,
      "stock": 140,
      "activationRegion": {
        "id": 1,
        "region": "Europe"
      },
      "activationPlatform": {
        "id": 3,
        "platform": "Epic Games"
      },
      "publisher": {
        "id": 3,
        "publisher": "Nintendo"
      },
      "genre": {
        "id": 2,
        "genre": "Shooter"
      },
      "seller": "Test"
    },
    {
      "id": 9,
      "name": "Dying Light 2 Stay Human",
      "price": 49.99,
      "description": "A survival horror game set in a post-apocalyptic world.",
      "image": "DyingLight2StayHuman.jpg",
      "releaseYear": 2022,
      "stock": 90,
      "activationRegion": {
        "id": 5,
        "region": "Egypt"
      },
      "activationPlatform": {
        "id": 1,
        "platform": "Steam"
      },
      "publisher": {
        "id": 2,
        "publisher": "Ubisoft"
      },
      "genre": {
        "id": 2,
        "genre": "Shooter"
      },
      "seller": "Test"
    }
  ],
  "currentPage": 2,
  "totalPages": 10,
  "totalItems": 30
}