{
  "items": [
    {
      "id": 28,
      "name": "Warframe",
      "price": 0.99,
      "description": "A cooperative free-to-play third-person online action game.",
      "image": "Warframe.jpg",
      "releaseYear": 2013,
      "stock": 100,
      "activationRegion": {
        "id": 4,
        "regionName": "Argentina"
      },
      "activationPlatform": {
        "id": 2,
        "platformName": "Ubisoft"
      },
      "publisher": {
        "id": 2,
        "publisherName": "Ubisoft"
      },
      "genre": {
        "id": 1,
        "name": "RPG"
      },
      "seller": "Test"
    },
    {
      "id": 7,
      "name": "Disney Bolt",
      "price": 14.99,
      "description": "An action game based on the Disney film Bolt.",
      "image": "DisneyBolt.jpg",
      "releaseYear": 2008,
      "stock": 160,
      "activationRegion": {
        "id": 3,
        "regionName": "Turkey"
      },
      "activationPlatform": {
        "id": 2,
        "platformName": "Ubisoft"
      },
      "publisher": {
        "id": 1,
        "publisherName": "Activision"
      },
      "genre": {
        "id": 5,
        "name": "Adventure"
      },
      "seller": "Test"
    },
    {
      "id": 5,
      "name": "Core Keeper",
      "price": 14.99,
      "description": "An indie exploration and crafting game.",
      "image": "CoreKeeper.png",
      "releaseYear": 2022,
      "stock": 180,
      "activationRegion": {
        "id": 1,
        "regionName": "Europe"
      },
      "activationPlatform": {
        "id": 3,
        "platformName": "Epic Games"
      },
      "publisher": {
        "id": 2,
        "publisherName": "Ubisoft"
      },
      "genre": {
        "id": 5,
        "name": "Adventure"
      },
      "seller": "Test"
    },
    {
      "id": 25,
      "name": "Stardew Valley",
      "price": 14.99,
      "description": "A farming simulation game with a focus on community and exploration.",
      "image": "StardewValley.jpg",
      "releaseYear": 2016,
      "stock": 140,
      "activationRegion": {
        "id": 1,
        "regionName": "Europe"
      },
      "activationPlatform": {
        "id": 2,
        "platformName": "Ubisoft"
      },
      "publisher": {
        "id": 3,
        "publisherName": "Nintendo"
      },
      "genre": {
        "id": 3,
        "name": "Puzzle"
      },
      "seller": "Test"
    },
    {
      "id": 3,
      "name": "Batman Arkham City",
      "price": 19.99,
      "description": "An action-adventure game set in the Batman universe.",
      "image": "BatmanArkhamCity.jpg",
      "releaseYear": 2011,
      "stock": 150,
      "activationRegion": {
        "id": 3,
        "regionName": "Turkey"
      },
      "activationPlatform": {
        "id": 1,
        "platformName": "Steam"
      },
      "publisher": {
        "id": 1,
        "publisherName": "Activision"
      },
      "genre": {
        "id": 5,
        "name": "Adventure"
      },
      "seller": "Test"
    },
    {
      "id": 20,
      "name": "Norland",
      "price": 19.99,
      "description": "A role-playing game with an expansive open world.",
      "image": "Norland.jpg",
      "releaseYear": 2023,
      "stock": 110,
      "activationRegion": {
        "id": 1,
        "regionName": "Europe"
      },
      "activationPlatform": {
        "id": 3,
        "platformName": "Epic Games"
      },
      "publisher": {
        "id": 3,
        "publisherName": "Nintendo"
      },
      "genre": {
        "id": 1,
        "name": "RPG"
      },
      "seller": "Test"
    },
    {
      "id": 15,
      "name": "Hitman Absolution",
      "price": 19.99,
      "description": "Stealth action game where you play as a contract assassin.",
      "image": "HitmanAbsolution.jpeg",
      "releaseYear": 2012,
      "stock": 90,
      "activationRegion": {
        "id": 3,
        "regionName": "Turkey"
      },
      "activationPlatform": {
        "id": 2,
        "platformName": "Ubisoft"
      },
      "publisher": {
        "id": 1,
        "publisherName": "Activision"
      },
      "genre": {
        "id": 2,
        "name": "Shooter"
      },
      "seller": "Test"
    },
    {
      "id": 1,
      "name": "Abiotic Factor",
      "price": 19.99,
      "description": "A sci-fi game exploring the survival in an alien environment.",
      "image": "AbioticFactor.jpg",
      "releaseYear": 2023,
      "stock": 100,
      "activationRegion": {
        "id": 1,
        "regionName": "Europe"
      },
      "activationPlatform": {
        "id": 1,
        "platformName": "Steam"
      },
      "publisher": {
        "id": 1,
        "publisherName": "Activision"
      },
      "genre": {
        "id": 5,
        "name": "Adventure"
      },
      "seller": "Test"
    },
    {
      "id": 29,
      "name": "Worms Rumble",
      "price": 19.99,
      "description": "A real-time battle royale game featuring the classic Worms characters.",
      "image": "WormsRumble.png",
      "releaseYear": 2020,
      "stock": 85,
      "activationRegion": {
        "id": 2,
        "regionName": "JAV"
      },
      "activationPlatform": {
        "id": 1,
        "platformName": "Steam"
      },
      "publisher": {
        "id": 1,
        "publisherName": "Activision"
      },
      "genre": {
        "id": 2,
        "name": "Shooter"
      },
      "seller": "Test"
    },
    {
      "id": 4,
      "name": "Car Mechanic Simulator VR",
      "price": 24.99,
      "description": "A simulation game where you fix and restore cars in VR.",
      "image": "CarMechanicSimulatorVR.png",
      "releaseYear": 2021,
      "stock": 120,
      "activationRegion": {
        "id": 4,
        "regionName": "Argentina"
      },
      "activationPlatform": {
        "id": 2,
        "platformName": "Ubisoft"
      },
      "publisher": {
        "id": 3,
        "publisherName": "Nintendo"
      },
      "genre": {
        "id": 3,
        "name": "Puzzle"
      },
      "seller": "Test"
    }
  ],
  "currentPage": 0,
  "totalPages": 3,
  "totalItems": 30
}